[
      { "event_id": 1,"name": "WEI", "nb_staff": "35" ,"lieu": "Choix du BDE !!secret!!"},
      { "event_id": 2,"name": "Soirée Chartres", "nb_staff": "25" ,"lieu": "Ferme du moulin du bois, Chartres de Bretagne"},
      { "event_id": 3,"name": "Soirée bar", "nb_staff": "5" ,"lieu": "Rue de la soif, Rennes"},
      { "event_id": 4,"name": "Repas Kfet", "nb_staff": "20" ,"lieu": "Caféteria ENSAI"},
      { "event_id": 5,"name": "Barbecue", "nb_staff": "20" ,"lieu": "ENSAI extérieur"}, 
      { "event_id": 6,"name": "Goûter", "nb_staff": "10" ,"lieu": "ENSAI"},
      { "event_id": 7,"name": "Petit-déjeuner", "nb_staff": "10" ,"lieu": "ENSAI"}
]
